{
    "android": {
        "appId": 20268,
        "appKey": "sa3atZiG7m_1oERl3rjmHvhTRLJcpf04"
    },
    "ios": {
        "appId": 20353,
        "appKey": "8__K8gw0nQPszZMS02cjLM9YK0YYJX1s"
    }
}